<?xml version="1.0" encoding="utf-8"?>
<!-- Generator: Adobe Illustrator 16.0.0, SVG Export Plug-In . SVG Version: 6.00 Build 0)  -->
<!DOCTYPE svg PUBLIC "-//W3C//DTD SVG 1.1//EN" "http://www.w3.org/Graphics/SVG/1.1/DTD/svg11.dtd">
<svg version="1.1" id="Capa_1" xmlns="http://www.w3.org/2000/svg" xmlns:xlink="http://www.w3.org/1999/xlink" x="0px" y="0px"
	 width="475.085px" height="475.085px" viewBox="0 0 475.085 475.085" enable-background="new 0 0 475.085 475.085"
	 xml:space="preserve">
<g>
	<g>
		<path fill="#FFFFFF" d="M237.541,328.897c25.128,0,46.632-8.946,64.523-26.83c17.889-17.884,26.834-39.399,26.834-64.525V91.365
			c0-25.126-8.939-46.632-26.834-64.525C284.173,8.951,262.669,0,237.541,0c-25.125,0-46.632,8.951-64.524,26.84
			c-17.893,17.89-26.838,39.399-26.838,64.525v146.177c0,25.125,8.949,46.641,26.838,64.525S212.416,328.897,237.541,328.897z"/>
		<path fill="#FFFFFF" d="M396.564,188.15c-3.607-3.617-7.898-5.426-12.848-5.426c-4.943,0-9.227,1.809-12.848,5.426
			c-3.613,3.616-5.42,7.898-5.42,12.845v36.547c0,35.213-12.52,65.333-37.549,90.362c-25.021,25.03-55.145,37.545-90.36,37.545
			c-35.214,0-65.334-12.515-90.365-37.545c-25.028-25.021-37.541-55.146-37.541-90.362v-36.547c0-4.947-1.809-9.229-5.424-12.845
			c-3.617-3.617-7.895-5.426-12.847-5.426c-4.952,0-9.235,1.809-12.85,5.426c-3.618,3.616-5.426,7.898-5.426,12.845v36.547
			c0,42.065,14.04,78.659,42.112,109.776c28.073,31.118,62.762,48.961,104.068,53.525v37.691h-73.089
			c-4.949,0-9.231,1.811-12.847,5.428c-3.617,3.615-5.426,7.898-5.426,12.848c0,4.941,1.809,9.232,5.426,12.848
			c3.616,3.613,7.898,5.428,12.847,5.428h182.72c4.947,0,9.234-1.813,12.846-5.428c3.621-3.613,5.432-7.906,5.432-12.848
			c0-4.947-1.811-9.232-5.432-12.848c-3.609-3.617-7.898-5.428-12.846-5.428h-73.081v-37.691
			c41.3-4.564,75.985-22.407,104.062-53.525c28.076-31.117,42.119-67.711,42.119-109.776v-36.547
			C401.998,196.049,400.185,191.77,396.564,188.15z"/>
	</g>
</g>
</svg>
