<?xml version="1.0" encoding="utf-8"?>
<!-- Generator: Adobe Illustrator 16.0.0, SVG Export Plug-In . SVG Version: 6.00 Build 0)  -->
<!DOCTYPE svg PUBLIC "-//W3C//DTD SVG 1.1//EN" "http://www.w3.org/Graphics/SVG/1.1/DTD/svg11.dtd">
<svg version="1.1" id="Layer_1" xmlns="http://www.w3.org/2000/svg" xmlns:xlink="http://www.w3.org/1999/xlink" x="0px" y="0px"
	 width="100px" height="100px" viewBox="0 0 100 100" enable-background="new 0 0 100 100" xml:space="preserve">
<path display="none" fill="#2BABE2" d="M71.602,81.266c11.228-7.498,18.625-20.276,18.625-34.791
	c0-23.09-18.719-41.808-41.81-41.808c-23.09,0-41.808,18.718-41.808,41.808c0,23.017,18.6,41.685,41.589,41.802
	c23.063,1.914,23.069,10.39,23.069,10.39L85.173,86.8C83.006,82.464,73.498,81.43,71.602,81.266z M51.041,80.014
	c8.493-2.146,15.745-7.406,20.466-14.5c-5.472,6.452-13.631,10.553-22.753,10.553c-16.47,0-29.822-13.353-29.822-29.822
	c0-16.469,13.352-29.821,29.822-29.821c9.122,0,17.281,4.1,22.753,10.552c-4.245-6.377-10.534-11.271-17.931-13.755
	c16.135,2.483,28.49,16.427,28.49,33.257C82.066,64.176,68.398,78.673,51.041,80.014z"/>
<g display="none">
	<path display="inline" fill="#2DABE2" d="M39.874,4.649c-2.295-1.809-5.88-1.802-8.166,0.016c-0.601,0.51-1.062,1.124-1.348,1.8
		h10.881C40.95,5.783,40.483,5.163,39.874,4.649z"/>
	<path display="inline" fill="#2DABE2" d="M8.874,14.834v6.118h53.853v-6.118c-0.186-2.986-3.22-5.286-6.787-5.15H15.664
		C12.094,9.548,9.062,11.848,8.874,14.834z"/>
	<path display="inline" fill="#2DABE2" d="M8.874,62.479c0.188,2.985,3.22,5.287,6.79,5.15h40.275
		c3.566,0.137,6.603-2.165,6.787-5.15V49.922H8.874V62.479z"/>
	<path display="inline" fill="#2DABE2" d="M8.874,46.704h53.853V24.17H8.874V46.704z M12.721,30.609h3.847v-3.22h3.846v3.22h3.847
		v3.219h-3.847v3.219h-3.846v-3.219h-3.847V30.609z"/>
	<path display="inline" fill="#2DABE2" d="M91.576,48.313V24.17c0-4.445-4.305-8.047-9.617-8.047c-5.311,0-9.615,3.603-9.615,8.047
		v56.335c0,7.111-6.889,12.877-15.388,12.877c-8.496,0-15.386-5.766-15.386-12.877v-6.438c1.063,0,1.924-0.719,1.924-1.606v-1.61
		H28.107v1.609c0,0.889,0.861,1.607,1.924,1.607v22.535h3.847V74.066h3.846v6.438c0,8.891,8.612,16.098,19.232,16.098
		c10.623,0,19.233-7.207,19.233-16.098V24.17c0-2.667,2.584-4.828,5.77-4.828c3.188,0,5.771,2.162,5.771,4.828v24.144h-1.924v9.657
		h1.924v8.049h3.847v-8.049H93.5v-9.657L91.576,48.313L91.576,48.313z"/>
</g>
<g id="surface1">
	<path fill="#4C9689" stroke="#2DABE2" d="M50.032,31.793c-9.941,0-18.03,8.088-18.03,18.03s8.089,18.03,18.03,18.03
		c9.942,0,18.03-8.088,18.03-18.03S59.975,31.793,50.032,31.793z M60.736,46.429L47.821,59.345
		c-0.542,0.544-1.253,0.814-1.964,0.814s-1.42-0.271-1.963-0.814l-4.936-4.938c-1.084-1.084-1.084-2.841,0-3.925
		c1.084-1.085,2.842-1.085,3.926,0l2.974,2.974l10.955-10.955c1.084-1.084,2.842-1.084,3.926,0
		C61.82,43.585,61.82,45.344,60.736,46.429z"/>
	<path fill="#4C9689" stroke="#2DABE2" d="M90.23,28.183l-0.004-0.074c-0.041-0.909-0.067-1.87-0.086-2.941
		c-0.076-5.218-4.226-9.533-9.441-9.825C69.818,14.736,61.4,11.188,54.21,4.179L54.148,4.12c-2.344-2.15-5.882-2.15-8.23,0
		l-0.062,0.059c-7.19,7.009-15.606,10.557-26.486,11.165c-5.218,0.291-9.366,4.606-9.443,9.825c-0.016,1.063-0.044,2.024-0.086,2.94
		L9.837,28.28c-0.212,11.094-0.475,24.901,4.145,37.436c2.54,6.892,6.387,12.884,11.432,17.808
		c5.747,5.606,13.274,10.062,22.372,13.23c0.296,0.104,0.604,0.188,0.917,0.251c0.442,0.088,0.887,0.13,1.332,0.13
		c0.444,0,0.89-0.042,1.331-0.13c0.313-0.063,0.622-0.147,0.92-0.251c9.087-3.178,16.606-7.633,22.349-13.24
		c5.045-4.926,8.891-10.918,11.434-17.812C90.704,53.133,90.439,39.298,90.23,28.183z M50.032,73.405
		c-13.003,0-23.582-10.578-23.582-23.582c0-13.004,10.579-23.583,23.582-23.583c13.003,0,23.583,10.58,23.583,23.583
		C73.615,62.826,63.035,73.405,50.032,73.405z"/>
</g>
</svg>
