<?xml version="1.0" encoding="utf-8"?>
<!-- Generator: Adobe Illustrator 16.0.0, SVG Export Plug-In . SVG Version: 6.00 Build 0)  -->
<!DOCTYPE svg PUBLIC "-//W3C//DTD SVG 1.1//EN" "http://www.w3.org/Graphics/SVG/1.1/DTD/svg11.dtd">
<svg version="1.1" id="Capa_1" xmlns="http://www.w3.org/2000/svg" xmlns:xlink="http://www.w3.org/1999/xlink" x="0px" y="0px"
	 width="62.5px" height="47.584px" viewBox="0 0 62.5 47.584" enable-background="new 0 0 62.5 47.584" xml:space="preserve">
<path fill="#FFFFFF" d="M55.531,8.681l-10.117,5.995v-1.708c0-2.72-1.15-5.15-2.961-6.851l0.018-0.019
	c-1.098-0.484-2.303-0.753-3.572-0.753H12.374c-4.999,0-9.052,4.165-9.052,9.299v20.702c0,2.994,1.378,5.655,3.518,7.355
	c0.89,0.301,2.007,0.27,2.996,0.27h26.512c5,0,9.053-4.165,9.053-9.301v-1.708l10.119,5.996c1.625,0.959,3.658-0.246,3.658-2.176
	V10.83C59.178,8.915,57.145,7.698,55.531,8.681z"/>
</svg>
