<?xml version="1.0" encoding="utf-8"?>
<!-- Generator: Adobe Illustrator 16.0.0, SVG Export Plug-In . SVG Version: 6.00 Build 0)  -->
<!DOCTYPE svg PUBLIC "-//W3C//DTD SVG 1.1//EN" "http://www.w3.org/Graphics/SVG/1.1/DTD/svg11.dtd">
<svg version="1.1" id="Capa_1" xmlns="http://www.w3.org/2000/svg" xmlns:xlink="http://www.w3.org/1999/xlink" x="0px" y="0px"
	 width="62.5px" height="47.584px" viewBox="48.7 110.2 62.5 47.584" enable-background="new 48.7 110.2 62.5 47.584"
	 xml:space="preserve">
<g>
	<path fill="#FFFFFF" d="M84.362,113.619H60.741c-4.452,0-8.062,3.61-8.062,8.062v17.945c0,2.595,1.228,4.902,3.133,6.376
		l31.731-31.73C86.567,113.852,85.492,113.619,84.362,113.619z"/>
	<path fill="#FFFFFF" d="M105.174,121.605l-9.01,5.197v-1.48c0-2.366-1.03-4.48-2.653-5.955l3.697-3.697l-2.051-2.051
		l-39.315,39.314l2.051,2.051l4.072-4.072c0.793,0.261,1.635,0.417,2.515,0.417h23.611c4.452,0,8.062-3.61,8.062-8.063v-1.479
		l9.011,5.196c1.448,0.832,3.259-0.212,3.259-1.884v-21.631C108.423,121.807,106.612,120.753,105.174,121.605z"/>
</g>
</svg>
